Multivariate -
…
dat <- read_csv("steptoe.morex.pheno.csv") 

Rows: 2432 Columns: 10
── Column specification ────────────────────────────────────────────────────────
Delimiter: ","
chr (2): gen, env
dbl (8): amylase, diapow, hddate, lodging, malt, height, protein, yield

ℹ Use `spec()` to retrieve the full column specification for this data.
ℹ Specify the column types or set `show_col_types = FALSE` to quiet this message.

dat

# A tibble: 2,432 × 10
   gen     env   amylase diapow hddate lodging  malt height protein yield
   <chr>   <chr>   <dbl>  <dbl>  <dbl>   <dbl> <dbl>  <dbl>   <dbl> <dbl>
 1 Steptoe MN92     22.7     46   150.      NA  73.6   84.5    10.5  5.53
 2 Steptoe MTi92    30.1     72   178       10  76.5   NA      11.2  8.64
 3 Steptoe MTd92    26.7     78   165       15  74.5   75.5    13.4  5.90
 4 Steptoe ID91     26.2     74   179       NA  74.1  111      12.1  8.63
 5 Steptoe OR91     19.6     62   191       NA  71.5   90      11.7  5.34
 6 Steptoe WA91     23.6     54   181       NA  73.8  112      10    6.27
 7 Steptoe MTi91    21       62   181       NA  70.8   98      12    4.10
 8 Steptoe MTd91    NA       NA   181       NA  NA     82      NA    7.07
 9 Steptoe NY92     NA       NA   176        0  NA     77.5    NA    6.05
10 Steptoe ON92     NA       NA   198       50  NA     95      NA    3.70
# ℹ 2,422 more rows
…
#|eval=TRUE
#|tidy=FALSE
#|size='tiny'
dat.ID91.label <- dat.ID91$gen

We delete the gen and env columns from the dataset to only keep the quantitative variables

#|eval=TRUE
#|tidy=FALSE
#|size='tiny'
dat.ID91$gen <- NULL 
dat.ID91$env <- NULL 
dat.ID91

# A tibble: 152 × 7
   amylase diapow hddate  malt height protein yield
     <dbl>  <dbl>  <dbl> <dbl>  <dbl>   <dbl> <dbl>
 1    26.2     74   179   74.1   111     12.1  8.63
 2    36.2     97   180   76.7   116     14.8  7.95
 3    32.8     83   183   74.4   117.    14.3  6.10
 4    24.9     81   178.  72.3   113     14    7.20
 5    30.2     69   180   72.9   117.    13.8  6.01
 6    30.3     99   184.  73.2   119.    14.9  8.09
 7    33.4     63   178   73.5   104.    13.1  7.98
 8    25.5     74   186.  71.8   130.    14.6  5.93
 9    26.8     78   185   75     124.    12.8  8.72
10    28.3     85   179   71.3   119.    14.1  6.48
# ℹ 142 more rows
…
We add the group names of the genotypes to the original data

#|eval=TRUE
#|tidy=FALSE
#|size='tiny'
dat.ID91 <- dat.ID91 %>%  
  mutate(cluster = cut.ID91)

#|eval=TRUE
#|tidy=FALSE
#|size='tiny'

dat.ID91

# A tibble: 152 × 8
   amylase diapow hddate  malt height protein yield cluster
     <dbl>  <dbl>  <dbl> <dbl>  <dbl>   <dbl> <dbl>   <int>
 1    26.2     74   179   74.1   111     12.1  8.63       1
 2    36.2     97   180   76.7   116     14.8  7.95       2
 3    32.8     83   183   74.4   117.    14.3  6.10       1
 4    24.9     81   178.  72.3   113     14    7.20       1
 5    30.2     69   180   72.9   117.    13.8  6.01       1
 6    30.3     99   184.  73.2   119.    14.9  8.09       3
 7    33.4     63   178   73.5   104.    13.1  7.98       1
 8    25.5     74   186.  71.8   130.    14.6  5.93       3
 9    26.8     78   185   75     124.    12.8  8.72       3
10    28.3     85   179   71.3   119.    14.1  6.48       1
# ℹ 142 more rows
…
Rows: 2432 Columns: 10
── Column specification ────────────────────────────────────────────────────────
Delimiter: ","
chr (2): gen, env
dbl (8): amylase, diapow, hddate, lodging, malt, height, protein, yield

ℹ Use `spec()` to retrieve the full column specification for this data.
ℹ Specify the column types or set `show_col_types = FALSE` to quiet this message.

dat

# A tibble: 2,432 × 10
   gen     env   amylase diapow hddate lodging  malt height protein yield
   <chr>   <chr>   <dbl>  <dbl>  <dbl>   <dbl> <dbl>  <dbl>   <dbl> <dbl>
 1 Steptoe MN92     22.7     46   150.      NA  73.6   84.5    10.5  5.53
 2 Steptoe MTi92    30.1     72   178       10  76.5   NA      11.2  8.64
 3 Steptoe MTd92    26.7     78   165       15  74.5   75.5    13.4  5.90
 4 Steptoe ID91     26.2     74   179       NA  74.1  111      12.1  8.63
 5 Steptoe OR91     19.6     62   191       NA  71.5   90      11.7  5.34
 6 Steptoe WA91     23.6     54   181       NA  73.8  112      10    6.27
 7 Steptoe MTi91    21       62   181       NA  70.8   98      12    4.10
 8 Steptoe MTd91    NA       NA   181       NA  NA     82      NA    7.07
 9 Steptoe NY92     NA       NA   176        0  NA     77.5    NA    6.05
10 Steptoe ON92     NA       NA   198       50  NA     95      NA    3.70
# ℹ 2,422 more rows
…
